STA540 Case 1
…
# view the final table-1-ready dataframe
table1_df

# A tibble: 25 × 4
   section                       Characteristic                   Value   indent
   <chr>                         <chr>                            <chr>    <dbl>
 1 Ethnicity, n (%)              Hispanic/Latinx                  66 (26…      1
 2 Race, n (%)                   American Indian or Alaska Native 1 (0.4)      1
 3 Race, n (%)                   Black or African American        196 (7…      1
 4 Race, n (%)                   Multiracial                      11 (4.…      1
 5 Race, n (%)                   Other                            18 (7.…      1
 6 Race, n (%)                   White                            28 (11…      1
 7 History of PrEP uptake, n (%) In the past 6 months             22 (8.…      1
 8 History of PrEP uptake, n (%) Never taken PrEP                 232 (9…      1
 9 Condom use frequency, n (%)   About half the time              37 (14…      1
10 Condom use frequency, n (%)   Always                           5 (2.0)      1
# ℹ 15 more rows
…
